﻿1.Шима
2.Луппи
3.Чёха
4.Синяк
5.Стики
6.Чомба
7.Санни
8.Плюф
9.Ёся
10.Глазун
11.Дастри
12.Клёш
13.Моня
14.Лыба
15.Вар-Вар
16.Боба
17.Молли
18.Фрау
19.Рогли
20.Лимоха
21.Гуглик
22.Зяба
23.Фобик
24.Пузан