1.Шипун
2.Завр
3.Барбос
4.Квакер
5.Котя
6.Лупач
7.Злюдин
8.Желтопуз
9.Крол
10.Панц
11.Лимпо
12.Раф
13.Хобо
14.Рык
15.Кудряш
16.Цыпа
17.Борян
18.Хрюня
19.Ушан
20.Скалли
21.Флипер
22.Птиц
23.Тетеха
24.Кусака